Манипуляции с данными с помощью пакета dplyr: решение заданий
…
Отберите наблюдения только для штатов California.

counties %>%
  filter(state == 'California')

## # A tibble: 58 x 40
##    census_id state county region metro population    men  women hispanic
##    <chr>     <chr> <chr>  <chr>  <chr>      <dbl>  <dbl>  <dbl>    <dbl>
##  1 6001      Cali… Alame… West   Metro    1584983 776699 808284     22.6
##  2 6003      Cali… Alpine West   Nonm…       1131    654    477      9.5
##  3 6005      Cali… Amador West   Nonm…      36995  20012  16983     12.9
##  4 6007      Cali… Butte  West   Metro     222564 110115 112449     15.2
##  5 6009      Cali… Calav… West   Nonm…      44767  22143  22624     11.1
##  6 6011      Cali… Colusa West   Nonm…      21396  11129  10267     57.4
##  7 6013      Cali… Contr… West   Metro    1096068 534618 561450     24.9
##  8 6015      Cali… Del N… West   Nonm…      27788  15418  12370     19.1
##  9 6017      Cali… El Do… West   Metro     182093  90970  91123     12.5
## 10 6019      Cali… Fresno West   Metro     956749 477316 479433     51.6
## # … with 48 more rows, and 31 more variables: white <dbl>, black <dbl>,
## #   native <dbl>, asian <dbl>, pacific <dbl>, citizens <dbl>,
## #   income <dbl>, income_err <dbl>, income_per_cap <dbl>,
## #   income_per_cap_err <dbl>, poverty <dbl>, child_poverty <dbl>,
## #   professional <dbl>, service <dbl>, office <dbl>, construction <dbl>,
## #   production <dbl>, drive <dbl>, carpool <dbl>, transit <dbl>,
## #   walk <dbl>, other_transp <dbl>, work_at_home <dbl>,
## #   mean_commute <dbl>, employed <dbl>, private_work <dbl>,
## #   public_work <dbl>, self_employed <dbl>, family_work <dbl>,
## #   unemployment <dbl>, land_area <dbl>

Отберите наблюдения только для штатов California и Florida.

counties %>%
  filter(state == 'California' | state == 'Florida')

## # A tibble: 125 x 40
##    census_id state county region metro population    men  women hispanic
##    <chr>     <chr> <chr>  <chr>  <chr>      <dbl>  <dbl>  <dbl>    <dbl>
##  1 6001      Cali… Alame… West   Metro    1584983 776699 808284     22.6
##  2 6003      Cali… Alpine West   Nonm…       1131    654    477      9.5
##  3 6005      Cali… Amador West   Nonm…      36995  20012  16983     12.9
##  4 6007      Cali… Butte  West   Metro     222564 110115 112449     15.2
##  5 6009      Cali… Calav… West   Nonm…      44767  22143  22624     11.1
##  6 6011      Cali… Colusa West   Nonm…      21396  11129  10267     57.4
##  7 6013      Cali… Contr… West   Metro    1096068 534618 561450     24.9
##  8 6015      Cali… Del N… West   Nonm…      27788  15418  12370     19.1
##  9 6017      Cali… El Do… West   Metro     182093  90970  91123     12.5
## 10 6019      Cali… Fresno West   Metro     956749 477316 479433     51.6
## # … with 115 more rows, and 31 more variables: white <dbl>, black <dbl>,
## #   native <dbl>, asian <dbl>, pacific <dbl>, citizens <dbl>,
## #   income <dbl>, income_err <dbl>, income_per_cap <dbl>,
## #   income_per_cap_err <dbl>, poverty <dbl>, child_poverty <dbl>,
## #   professional <dbl>, service <dbl>, office <dbl>, construction <dbl>,
## #   production <dbl>, drive <dbl>, carpool <dbl>, transit <dbl>,
## #   walk <dbl>, other_transp <dbl>, work_at_home <dbl>,
## #   mean_commute <dbl>, employed <dbl>, private_work <dbl>,
## #   public_work <dbl>, self_employed <dbl>, family_work <dbl>,
## #   unemployment <dbl>, land_area <dbl>

Отберите наблюдения только для штатов California, Florida, Alabama и Indiana.

counties %>%
  filter(state %in% c('California', 'Florida', 'Alabama', 'Indiana'))

## # A tibble: 284 x 40
##    census_id state county region metro population   men women hispanic
##    <chr>     <chr> <chr>  <chr>  <chr>      <dbl> <dbl> <dbl>    <dbl>
##  1 1001      Alab… Autau… South  Metro      55221 26745 28476      2.6
##  2 1003      Alab… Baldw… South  Metro     195121 95314 99807      4.5
##  3 1005      Alab… Barbo… South  Nonm…      26932 14497 12435      4.6
##  4 1007      Alab… Bibb   South  Metro      22604 12073 10531      2.2
##  5 1009      Alab… Blount South  Metro      57710 28512 29198      8.6
##  6 1011      Alab… Bullo… South  Nonm…      10678  5660  5018      4.4
##  7 1013      Alab… Butler South  Nonm…      20354  9502 10852      1.2
##  8 1015      Alab… Calho… South  Metro     116648 56274 60374      3.5
##  9 1017      Alab… Chamb… South  Nonm…      34079 16258 17821      0.4
## 10 1019      Alab… Chero… South  Nonm…      26008 12975 13033      1.5
## # … with 274 more rows, and 31 more variables: white <dbl>, black <dbl>,
## #   native <dbl>, asian <dbl>, pacific <dbl>, citizens <dbl>,
## #   income <dbl>, income_err <dbl>, income_per_cap <dbl>,
## #   income_per_cap_err <dbl>, poverty <dbl>, child_poverty <dbl>,
## #   professional <dbl>, service <dbl>, office <dbl>, construction <dbl>,
## #   production <dbl>, drive <dbl>, carpool <dbl>, transit <dbl>,
## #   walk <dbl>, other_transp <dbl>, work_at_home <dbl>,
## #   mean_commute <dbl>, employed <dbl>, private_work <dbl>,
## #   public_work <dbl>, self_employed <dbl>, family_work <dbl>,
## #   unemployment <dbl>, land_area <dbl>

Отберите округа с количеством населения не меньше 20000 только для штатов California, Florida, Alabama и Indiana.

counties %>%
  filter(state %in% c('California', 'Florida', 'Alabama', 'Indiana'), population >= 20000) 

## # A tibble: 226 x 40
##    census_id state county region metro population   men women hispanic
##    <chr>     <chr> <chr>  <chr>  <chr>      <dbl> <dbl> <dbl>    <dbl>
##  1 1001      Alab… Autau… South  Metro      55221 26745 28476      2.6
##  2 1003      Alab… Baldw… South  Metro     195121 95314 99807      4.5
##  3 1005      Alab… Barbo… South  Nonm…      26932 14497 12435      4.6
##  4 1007      Alab… Bibb   South  Metro      22604 12073 10531      2.2
##  5 1009      Alab… Blount South  Metro      57710 28512 29198      8.6
##  6 1013      Alab… Butler South  Nonm…      20354  9502 10852      1.2
##  7 1015      Alab… Calho… South  Metro     116648 56274 60374      3.5
##  8 1017      Alab… Chamb… South  Nonm…      34079 16258 17821      0.4
##  9 1019      Alab… Chero… South  Nonm…      26008 12975 13033      1.5
## 10 1021      Alab… Chilt… South  Metro      43819 21619 22200      7.6
## # … with 216 more rows, and 31 more variables: white <dbl>, black <dbl>,
## #   native <dbl>, asian <dbl>, pacific <dbl>, citizens <dbl>,
## #   income <dbl>, income_err <dbl>, income_per_cap <dbl>,
## #   income_per_cap_err <dbl>, poverty <dbl>, child_poverty <dbl>,
## #   professional <dbl>, service <dbl>, office <dbl>, construction <dbl>,
## #   production <dbl>, drive <dbl>, carpool <dbl>, transit <dbl>,
## #   walk <dbl>, other_transp <dbl>, work_at_home <dbl>,
## #   mean_commute <dbl>, employed <dbl>, private_work <dbl>,
## #   public_work <dbl>, self_employed <dbl>, family_work <dbl>,
## #   unemployment <dbl>, land_area <dbl>

Отберите все округа кроме округов штата California.

counties %>%
  filter(state != 'California') 

## # A tibble: 3,080 x 40
##    census_id state county region metro population   men women hispanic
##    <chr>     <chr> <chr>  <chr>  <chr>      <dbl> <dbl> <dbl>    <dbl>
##  1 1001      Alab… Autau… South  Metro      55221 26745 28476      2.6
##  2 1003      Alab… Baldw… South  Metro     195121 95314 99807      4.5
##  3 1005      Alab… Barbo… South  Nonm…      26932 14497 12435      4.6
##  4 1007      Alab… Bibb   South  Metro      22604 12073 10531      2.2
##  5 1009      Alab… Blount South  Metro      57710 28512 29198      8.6
##  6 1011      Alab… Bullo… South  Nonm…      10678  5660  5018      4.4
##  7 1013      Alab… Butler South  Nonm…      20354  9502 10852      1.2
##  8 1015      Alab… Calho… South  Metro     116648 56274 60374      3.5
##  9 1017      Alab… Chamb… South  Nonm…      34079 16258 17821      0.4
## 10 1019      Alab… Chero… South  Nonm…      26008 12975 13033      1.5
## # … with 3,070 more rows, and 31 more variables: white <dbl>, black <dbl>,
## #   native <dbl>, asian <dbl>, pacific <dbl>, citizens <dbl>,
## #   income <dbl>, income_err <dbl>, income_per_cap <dbl>,
## #   income_per_cap_err <dbl>, poverty <dbl>, child_poverty <dbl>,
## #   professional <dbl>, service <dbl>, office <dbl>, construction <dbl>,
## #   production <dbl>, drive <dbl>, carpool <dbl>, transit <dbl>,
## #   walk <dbl>, other_transp <dbl>, work_at_home <dbl>,
## #   mean_commute <dbl>, employed <dbl>, private_work <dbl>,
## #   public_work <dbl>, self_employed <dbl>, family_work <dbl>,
## #   unemployment <dbl>, land_area <dbl>

Отсортируйте в алфавитном порядке названия штатов.

counties %>%
  arrange(state)

## # A tibble: 3,138 x 40
##    census_id state county region metro population   men women hispanic
##    <chr>     <chr> <chr>  <chr>  <chr>      <dbl> <dbl> <dbl>    <dbl>
##  1 1001      Alab… Autau… South  Metro      55221 26745 28476      2.6
##  2 1003      Alab… Baldw… South  Metro     195121 95314 99807      4.5
##  3 1005      Alab… Barbo… South  Nonm…      26932 14497 12435      4.6
##  4 1007      Alab… Bibb   South  Metro      22604 12073 10531      2.2
##  5 1009      Alab… Blount South  Metro      57710 28512 29198      8.6
##  6 1011      Alab… Bullo… South  Nonm…      10678  5660  5018      4.4
##  7 1013      Alab… Butler South  Nonm…      20354  9502 10852      1.2
##  8 1015      Alab… Calho… South  Metro     116648 56274 60374      3.5
##  9 1017      Alab… Chamb… South  Nonm…      34079 16258 17821      0.4
## 10 1019      Alab… Chero… South  Nonm…      26008 12975 13033      1.5
## # … with 3,128 more rows, and 31 more variables: white <dbl>, black <dbl>,
## #   native <dbl>, asian <dbl>, pacific <dbl>, citizens <dbl>,
## #   income <dbl>, income_err <dbl>, income_per_cap <dbl>,
## #   income_per_cap_err <dbl>, poverty <dbl>, child_poverty <dbl>,
## #   professional <dbl>, service <dbl>, office <dbl>, construction <dbl>,
## #   production <dbl>, drive <dbl>, carpool <dbl>, transit <dbl>,
## #   walk <dbl>, other_transp <dbl>, work_at_home <dbl>,
## #   mean_commute <dbl>, employed <dbl>, private_work <dbl>,
## #   public_work <dbl>, self_employed <dbl>, family_work <dbl>,
## #   unemployment <dbl>, land_area <dbl>

Отсортируйте в алфавитном порядке названия штатов и округов.

counties %>%
  arrange(state, county)

## # A tibble: 3,138 x 40
##    census_id state county region metro population   men women hispanic
##    <chr>     <chr> <chr>  <chr>  <chr>      <dbl> <dbl> <dbl>    <dbl>
##  1 1001      Alab… Autau… South  Metro      55221 26745 28476      2.6
##  2 1003      Alab… Baldw… South  Metro     195121 95314 99807      4.5
##  3 1005      Alab… Barbo… South  Nonm…      26932 14497 12435      4.6
##  4 1007      Alab… Bibb   South  Metro      22604 12073 10531      2.2
##  5 1009      Alab… Blount South  Metro      57710 28512 29198      8.6
##  6 1011      Alab… Bullo… South  Nonm…      10678  5660  5018      4.4
##  7 1013      Alab… Butler South  Nonm…      20354  9502 10852      1.2
##  8 1015      Alab… Calho… South  Metro     116648 56274 60374      3.5
##  9 1017      Alab… Chamb… South  Nonm…      34079 16258 17821      0.4
## 10 1019      Alab… Chero… South  Nonm…      26008 12975 13033      1.5
## # … with 3,128 more rows, and 31 more variables: white <dbl>, black <dbl>,
## #   native <dbl>, asian <dbl>, pacific <dbl>, citizens <dbl>,
## #   income <dbl>, income_err <dbl>, income_per_cap <dbl>,
## #   income_per_cap_err <dbl>, poverty <dbl>, child_poverty <dbl>,
## #   professional <dbl>, service <dbl>, office <dbl>, construction <dbl>,
## #   production <dbl>, drive <dbl>, carpool <dbl>, transit <dbl>,
## #   walk <dbl>, other_transp <dbl>, work_at_home <dbl>,
## #   mean_commute <dbl>, employed <dbl>, private_work <dbl>,
## #   public_work <dbl>, self_employed <dbl>, family_work <dbl>,
## #   unemployment <dbl>, land_area <dbl>

Отсортируйте округи в порядке убывания численности населения. Какой штат и округ имеют наибольшую численность населения?

counties %>%
  arrange(desc(population))

## # A tibble: 3,138 x 40
##    census_id state county region metro population    men  women hispanic
##    <chr>     <chr> <chr>  <chr>  <chr>      <dbl>  <dbl>  <dbl>    <dbl>
##  1 6037      Cali… Los A… West   Metro   10038388 4.95e6 5.09e6     48.2
##  2 17031     Illi… Cook   North… Metro    5236393 2.54e6 2.70e6     24.7
##  3 48201     Texas Harris South  Metro    4356362 2.17e6 2.19e6     41.6
##  4 4013      Ariz… Maric… West   Metro    4018143 1.99e6 2.03e6     30.1
##  5 6073      Cali… San D… West   Metro    3223096 1.62e6 1.60e6     32.9
##  6 6059      Cali… Orange West   Metro    3116069 1.54e6 1.58e6     34.2
##  7 12086     Flor… Miami… South  Metro    2639042 1.28e6 1.36e6     65.6
##  8 36047     New … Kings  North… Metro    2595259 1.23e6 1.37e6     19.6
##  9 48113     Texas Dallas South  Metro    2485003 1.23e6 1.26e6     39  
## 10 36081     New … Queens North… Metro    2301139 1.12e6 1.19e6     27.9
## # … with 3,128 more rows, and 31 more variables: white <dbl>, black <dbl>,
## #   native <dbl>, asian <dbl>, pacific <dbl>, citizens <dbl>,
## #   income <dbl>, income_err <dbl>, income_per_cap <dbl>,
## #   income_per_cap_err <dbl>, poverty <dbl>, child_poverty <dbl>,
## #   professional <dbl>, service <dbl>, office <dbl>, construction <dbl>,
## #   production <dbl>, drive <dbl>, carpool <dbl>, transit <dbl>,
## #   walk <dbl>, other_transp <dbl>, work_at_home <dbl>,
## #   mean_commute <dbl>, employed <dbl>, private_work <dbl>,
## #   public_work <dbl>, self_employed <dbl>, family_work <dbl>,
## #   unemployment <dbl>, land_area <dbl>

Отберите переменные state, county, population и unemployment.

counties %>% 
  select(state, county, population, unemployment)

## # A tibble: 3,138 x 4
##    state   county   population unemployment
##    <chr>   <chr>         <dbl>        <dbl>
##  1 Alabama Autauga       55221          7.6
##  2 Alabama Baldwin      195121          7.5
##  3 Alabama Barbour       26932         17.6
##  4 Alabama Bibb          22604          8.3
##  5 Alabama Blount        57710          7.7
##  6 Alabama Bullock       10678         18  
##  7 Alabama Butler        20354         10.9
##  8 Alabama Calhoun      116648         12.3
##  9 Alabama Chambers      34079          8.9
## 10 Alabama Cherokee      26008          7.9
## # … with 3,128 more rows

Отберите переменные state, county, region, metro, population, men и women.

counties %>% 
  select(state:women)

## # A tibble: 3,138 x 7
##    state   county   region metro    population   men women
##    <chr>   <chr>    <chr>  <chr>         <dbl> <dbl> <dbl>
##  1 Alabama Autauga  South  Metro         55221 26745 28476
##  2 Alabama Baldwin  South  Metro        195121 95314 99807
##  3 Alabama Barbour  South  Nonmetro      26932 14497 12435
##  4 Alabama Bibb     South  Metro         22604 12073 10531
##  5 Alabama Blount   South  Metro         57710 28512 29198
##  6 Alabama Bullock  South  Nonmetro      10678  5660  5018
##  7 Alabama Butler   South  Nonmetro      20354  9502 10852
##  8 Alabama Calhoun  South  Metro        116648 56274 60374
##  9 Alabama Chambers South  Nonmetro      34079 16258 17821
## 10 Alabama Cherokee South  Nonmetro      26008 12975 13033
## # … with 3,128 more rows

Отберите переменные state, county, region, population, men и women.

counties %>% 
  select(state:women, -metro)

## # A tibble: 3,138 x 6
##    state   county   region population   men women
##    <chr>   <chr>    <chr>       <dbl> <dbl> <dbl>
##  1 Alabama Autauga  South       55221 26745 28476
##  2 Alabama Baldwin  South      195121 95314 99807
##  3 Alabama Barbour  South       26932 14497 12435
##  4 Alabama Bibb     South       22604 12073 10531
##  5 Alabama Blount   South       57710 28512 29198
##  6 Alabama Bullock  South       10678  5660  5018
##  7 Alabama Butler   South       20354  9502 10852
##  8 Alabama Calhoun  South      116648 56274 60374
##  9 Alabama Chambers South       34079 16258 17821
## 10 Alabama Cherokee South       26008 12975 13033
## # … with 3,128 more rows

Создать переменную unemployed_population, которая показывает количество безработного населения.

counties %>%
  mutate(unemployed_population = population * unemployment / 100) 

## # A tibble: 3,138 x 41
##    census_id state county region metro population   men women hispanic
##    <chr>     <chr> <chr>  <chr>  <chr>      <dbl> <dbl> <dbl>    <dbl>
##  1 1001      Alab… Autau… South  Metro      55221 26745 28476      2.6
##  2 1003      Alab… Baldw… South  Metro     195121 95314 99807      4.5
##  3 1005      Alab… Barbo… South  Nonm…      26932 14497 12435      4.6
##  4 1007      Alab… Bibb   South  Metro      22604 12073 10531      2.2
##  5 1009      Alab… Blount South  Metro      57710 28512 29198      8.6
##  6 1011      Alab… Bullo… South  Nonm…      10678  5660  5018      4.4
##  7 1013      Alab… Butler South  Nonm…      20354  9502 10852      1.2
##  8 1015      Alab… Calho… South  Metro     116648 56274 60374      3.5
##  9 1017      Alab… Chamb… South  Nonm…      34079 16258 17821      0.4
## 10 1019      Alab… Chero… South  Nonm…      26008 12975 13033      1.5
## # … with 3,128 more rows, and 32 more variables: white <dbl>, black <dbl>,
## #   native <dbl>, asian <dbl>, pacific <dbl>, citizens <dbl>,
## #   income <dbl>, income_err <dbl>, income_per_cap <dbl>,
## #   income_per_cap_err <dbl>, poverty <dbl>, child_poverty <dbl>,
## #   professional <dbl>, service <dbl>, office <dbl>, construction <dbl>,
## #   production <dbl>, drive <dbl>, carpool <dbl>, transit <dbl>,
## #   walk <dbl>, other_transp <dbl>, work_at_home <dbl>,
## #   mean_commute <dbl>, employed <dbl>, private_work <dbl>,
## #   public_work <dbl>, self_employed <dbl>, family_work <dbl>,
## #   unemployment <dbl>, land_area <dbl>, unemployed_population <dbl>

Создать логическую переменную pop_1kk, которая отвечает на вопрос: “Проживает ли в округе более 1000000 человек?”

counties %>%
  mutate(pop_1kk = population > 1000000) 

## # A tibble: 3,138 x 41
##    census_id state county region metro population   men women hispanic
##    <chr>     <chr> <chr>  <chr>  <chr>      <dbl> <dbl> <dbl>    <dbl>
##  1 1001      Alab… Autau… South  Metro      55221 26745 28476      2.6
##  2 1003      Alab… Baldw… South  Metro     195121 95314 99807      4.5
##  3 1005      Alab… Barbo… South  Nonm…      26932 14497 12435      4.6
##  4 1007      Alab… Bibb   South  Metro      22604 12073 10531      2.2
##  5 1009      Alab… Blount South  Metro      57710 28512 29198      8.6
##  6 1011      Alab… Bullo… South  Nonm…      10678  5660  5018      4.4
##  7 1013      Alab… Butler South  Nonm…      20354  9502 10852      1.2
##  8 1015      Alab… Calho… South  Metro     116648 56274 60374      3.5
##  9 1017      Alab… Chamb… South  Nonm…      34079 16258 17821      0.4
## 10 1019      Alab… Chero… South  Nonm…      26008 12975 13033      1.5
## # … with 3,128 more rows, and 32 more variables: white <dbl>, black <dbl>,
## #   native <dbl>, asian <dbl>, pacific <dbl>, citizens <dbl>,
## #   income <dbl>, income_err <dbl>, income_per_cap <dbl>,
## #   income_per_cap_err <dbl>, poverty <dbl>, child_poverty <dbl>,
## #   professional <dbl>, service <dbl>, office <dbl>, construction <dbl>,
## #   production <dbl>, drive <dbl>, carpool <dbl>, transit <dbl>,
## #   walk <dbl>, other_transp <dbl>, work_at_home <dbl>,
## #   mean_commute <dbl>, employed <dbl>, private_work <dbl>,
## #   public_work <dbl>, self_employed <dbl>, family_work <dbl>,
…
