Пакеты lubridate, stringr и forcats
…
Чтобы создать переменную даты и времени нужно добавить в имя функции символ нижнего подчеркивания и одну или несколько дополнительных букв h, m и s, которым соответствуют часы, минуты и секунды.

ymd_hms("2017-01-31 20:11:59")
## [1] "2017-01-31 20:11:59 UTC"
mdy_hm("01/31/2017 08:01")
## [1] "2017-01-31 08:01:00 UTC"

Создание переменных на основе отдельных компонент

Иногда вы будете располагать отдельными компонентами даты и времени, предоставленных в нескольких столбцах. Например такой вариант есть в фрейме данных flights.

flights %>% 
  select(year, month, day, hour, minute)

## # A tibble: 336,776 x 5
##     year month   day  hour minute
##    <int> <int> <int> <dbl>  <dbl>
##  1  2013     1     1     5     15
##  2  2013     1     1     5     29
##  3  2013     1     1     5     40
##  4  2013     1     1     5     45
##  5  2013     1     1     6      0
##  6  2013     1     1     5     58
##  7  2013     1     1     6      0
##  8  2013     1     1     6      0
##  9  2013     1     1     6      0
## 10  2013     1     1     6      0
## # … with 336,766 more rows

В таком случае можно использовать функцию make_date для даты и make_datetime для даты и времени.

flights %>% 
  select(year, month, day, hour, minute) %>% 
  mutate(departure_dt = make_datetime(year, month, day, hour, minute),
         departure_d = make_date(year, month, day))

## # A tibble: 336,776 x 7
##     year month   day  hour minute departure_dt        departure_d
##    <int> <int> <int> <dbl>  <dbl> <dttm>              <date>     
##  1  2013     1     1     5     15 2013-01-01 05:15:00 2013-01-01 
##  2  2013     1     1     5     29 2013-01-01 05:29:00 2013-01-01 
##  3  2013     1     1     5     40 2013-01-01 05:40:00 2013-01-01 
##  4  2013     1     1     5     45 2013-01-01 05:45:00 2013-01-01 
##  5  2013     1     1     6      0 2013-01-01 06:00:00 2013-01-01 
##  6  2013     1     1     5     58 2013-01-01 05:58:00 2013-01-01 
##  7  2013     1     1     6      0 2013-01-01 06:00:00 2013-01-01 
##  8  2013     1     1     6      0 2013-01-01 06:00:00 2013-01-01 
##  9  2013     1     1     6      0 2013-01-01 06:00:00 2013-01-01 
## 10  2013     1     1     6      0 2013-01-01 06:00:00 2013-01-01 
## # … with 336,766 more rows
…
