Работа с пропущенными значениями
…
Функция miss_case_summary выдает tibble- фрейм в котором есть переменные:

case – номер наблюдения

n_miss – количество пропущенных значений

pct_miss – процент пропущенных значений

Такой фрейм так же отсортирован по столбцу n_miss.

miss_case_summary(airquality)

## # A tibble: 153 x 3
##     case n_miss pct_miss
##    <int>  <int>    <dbl>
##  1     5      2     33.3
##  2    27      2     33.3
##  3     6      1     16.7
##  4    10      1     16.7
##  5    11      1     16.7
##  6    25      1     16.7
##  7    26      1     16.7
##  8    32      1     16.7
##  9    33      1     16.7
## 10    34      1     16.7
## # … with 143 more rows

Эти функции можно применять с pipe’ом (%>%).

airquality %>% 
  group_by(Month) %>% 
  miss_var_summary() 

## # A tibble: 25 x 4
## # Groups:   Month [5]
##    Month variable n_miss pct_miss
##    <int> <chr>     <int>    <dbl>
##  1     5 Ozone         5     16.1
##  2     5 Solar.R       4     12.9
##  3     5 Wind          0      0  
##  4     5 Temp          0      0  
##  5     5 Day           0      0  
##  6     6 Ozone        21     70  
##  7     6 Solar.R       0      0  
##  8     6 Wind          0      0  
##  9     6 Temp          0      0  
## 10     6 Day           0      0  
## # … with 15 more rows

airquality %>% 
  group_by(Month) %>% 
  miss_case_summary()

## # A tibble: 153 x 4
## # Groups:   Month [5]
##    Month  case n_miss pct_miss
##    <int> <int>  <int>    <dbl>
##  1     5     5      2       40
##  2     5    27      2       40
##  3     5     6      1       20
##  4     5    10      1       20
##  5     5    11      1       20
##  6     5    25      1       20
##  7     5    26      1       20
##  8     5     1      0        0
##  9     5     2      0        0
## 10     5     3      0        0
## # … with 143 more rows
…
